{
    "textures": [
        { 
            "id": "textures/hdri",
            "single_color": [0.0, 0.0, 0.0, 1.0]
        },
        {
            "id": "textures/white_light",
            "single_color": [4.0, 4.0, 4.0, 1.0]
        },
        {
            "id": "textures/blue",
            "single_color": [0.2, 0.3, 0.4, 1.0]
        },
        {
            "id": "textures/checkerboard",
            "generator": "checkerboard"
        }
    ],
    "materials": [
        {
            "id": "materials/white_light",
            "emission_texture": "textures/white_light"
        },
        {
            "id": "materials/blue",
            "albedo_texture": "textures/blue"
        },
        {
            "id": "materials/checkerboard",
            "albedo_texture": "textures/checkerboard"
        },
        {
            "id": "materials/background",
            "emission_texture": "textures/hdri"
        }
    ],
    "meshes": [
        {
            "id": "meshes/sphere",
            "generator": "sphere"
        },
        {
            "id": "meshes/cube",
            "generator": "cube"
        },
        {
            "id": "meshes/quad",
            "generator": "plane"
        }
    ],
    "entities": [
        {
            "id": "scene/ground",
            "mesh": "meshes/quad",
            "material": "materials/checkerboard",
            "position": [0.0, 0.0, 0.0],
            "rotation": [1.0, 0.0, 0.0, -90.0],
            "scale": [10.0, 10.0, 10.0]
        },
        {
            "id": "scene/sphere1",
            "mesh": "meshes/sphere",
            "material": "materials/blue",
            "position": [0.0, 0.5, 0.0],
            "scale": [0.5, 0.5, 0.5]
        },
        {
            "id": "scene/area_light",
            "mesh": "meshes/quad",
            "material": "materials/white_light",
            "position": [0.0, 4.0, 0.0],
            "rotation": [1.0, 0.0, 0.0, 90.0],
            "scale": [3.0, 1.0, 1.0]
        }
    ],
    "directional_lights": [
    ],
    "camera": {
        "position": [0.0, 1.0, 8.0]
    },
    "backgroundMaterial": "materials/background"
}
