{
    "textures": [
        { 
            "id": "textures/background",
            "single_color": [0.0, 0.0, 0.0, 1.0]
        },
        {
            "id": "textures/white",
            "single_color": [0.73, 0.73, 0.73, 1.0]
        },
        {
            "id": "textures/red",
            "single_color": [0.65, 0.05, 0.05, 1.0]
        },
        {
            "id": "textures/green",
            "single_color": [0.12, 0.45, 0.15, 1.0]
        },
        {
            "id": "textures/light",
            "single_color": [15.0, 15.0, 15.0, 1.0]
        }
    ],
    "materials": [
        {
            "id": "materials/white",
            "albedo_texture": "textures/white"
        },
        {
            "id": "materials/red",
            "albedo_texture": "textures/red"
        },
        {
            "id": "materials/green",
            "albedo_texture": "textures/green"
        },
        {
            "id": "materials/light",
            "emission_texture": "textures/light"
        },
        {
            "id": "materials/background",
            "emission_texture": "textures/background"
        }
    ],
    "meshes": [
        {
            "id": "meshes/cube",
            "generator": "cube"
        },
        {
            "id": "meshes/quad",
            "generator": "plane"
        }
    ],
    "entities": [
        {
            "id": "scene/floor",
            "mesh": "meshes/quad",
            "material": "materials/white",
            "position": [0.0, -1.0, 0.0],
            "scale": [2.0, 2.0, 2.0],
            "rotation": [1.0, 0.0, 0.0, -90.0]
        },
        {
            "id": "scene/ceiling",
            "mesh": "meshes/quad",
            "material": "materials/white",
            "position": [0.0, 1.0, 0.0],
            "scale": [2.0, 2.0, 2.0],
            "rotation": [1.0, 0.0, 0.0, 90.0]
        },
        {
            "id": "scene/light",
            "mesh": "meshes/quad",
            "material": "materials/light",
            "position": [0.0, 0.99, 0.0],
            "scale": [0.5, 0.5, 0.5],
            "rotation": [1.0, 0.0, 0.0, 90.0]
        },
        {
            "id": "scene/green_wall",
            "mesh": "meshes/quad",
            "material": "materials/green",
            "position": [-1.0, 0.0, 0.0],
            "scale": [2.0, 2.0, 2.0],
            "rotation": [0.0, 1.0, 0.0, 90.0]
        },
        {
            "id": "scene/red_wall",
            "mesh": "meshes/quad",
            "material": "materials/red",
            "position": [1.0, 0.0, 0.0],
            "scale": [2.0, 2.0, 2.0],
            "rotation": [0.0, 1.0, 0.0, -90.0]
        },
        {
            "id": "scene/back_wall",
            "mesh": "meshes/quad",
            "material": "materials/white",
            "position": [0.0, 0.0, -1.0],
            "scale": [2.0, 2.0, 2.0]
        },
        {
            "id": "scene/back_cube",
            "mesh": "meshes/cube",
            "material": "materials/white",
            "position": [-0.4, -0.2, -0.4],
            "scale": [0.8, 1.6, 0.8],
            "rotation": [0.0, 1.0, 0.0, 20.0]
        },
        {
            "id": "scene/front_cube",
            "mesh": "meshes/cube",
            "material": "materials/white",
            "position": [0.4, -0.6, 0.3],
            "scale": [0.8, 0.8, 0.8],
            "rotation": [0.0, 1.0, 0.0, -20.0]
        }
    ],
    "camera": {
        "position": [0.0, 0.0, 3.2]
    },
    "backgroundMaterial": "materials/background"
}
