{
  "version": 3,
  "cmakeMinimumRequired": {
    "major": 3,
    "minor": 0,
    "patch": 0
  },
  "configurePresets": [
    {
      "name": "default",
      "binaryDir": "${sourceDir}/build",
      "installDir": "${sourceDir}/build/install",
      "cacheVariables": {
        "BUILD_SHARED_LIBS": "ON"
      }
    }
  ],
  "buildPresets": [
    {
      "name": "default",
      "configurePreset": "default",
      "configuration": "Release"
    }
  ]
}
